{
  "components": [
    {
      "label": "Columns",
      "columns": [
        {
          "components": [
            {
              "label": "Events.Classes.DisplayCode",
              "spellcheck": false,
              "tableView": true,
              "validate": {
                "unique": false,
                "multiple": false
              },
              "key": "courseClassDisplayCode",
              "type": "textfield",
              "input": true,
              "hideOnChildrenHidden": false
            }
          ],
          "width": 3,
          "offset": 0,
          "push": 0,
          "pull": 0
        },
        {
          "components": [
            {
              "label": "Events.Title",
              "spellcheck": true,
              "tableView": true,
              "validate": {
                "unique": false,
                "multiple": false
              },
              "key": "courseClassTitle",
              "type": "textfield",
              "input": true,
              "hideOnChildrenHidden": false
            }
          ],
          "width": 3,
          "offset": 0,
          "push": 0,
          "pull": 0
        },
        {
          "components": [
            {
              "label": "Events.Classes.RegistrationType",
              "widget": "choicesjs",
              "dataSrc": "url",
              "data": {
                "url": "RegistrationTypes",
                "headers": []
              },
              "selectThreshold": 0.3,
              "validate": {
                "unique": false,
                "multiple": false
              },
              "template": "{{ item.name }}",
              "key": "registrationType",
              "valueProperty": "id",
              "selectValues": "value",
              "type": "select",
              "input": true,
              "hideOnChildrenHidden": false,
              "disableLimit": false,
              "lazyLoad": false
            }
          ],
          "width": 3,
          "offset": 0,
          "push": 0,
          "pull": 0
        },
        {
          "components": [
            {
              "label": "Events.Instructors.FullName",
              "spellcheck": true,
              "tableView": true,
              "validate": {
                "unique": false,
                "multiple": false
              },
              "key": "instructorName",
              "type": "textfield",
              "input": true,
              "hideOnChildrenHidden": false
            }
          ],
          "width": 3,
          "offset": 0,
          "push": 0,
          "pull": 0
        }
      ],
      "tableView": false,
      "key": "department",
      "type": "columns",
      "input": false,
      "path": "columns"
    },
    {
      "label": "Columns",
      "columns": [
        {
          "components": [
            {
              "label": "Events.Instructors.Category",
              "labelPosition": "top",
              "widget": {
                "type": "input"
              },
              "key": "category",
              "type": "textfield",
              "input": true
            }
          ],
          "width": 3,
          "offset": 0,
          "push": 0,
          "pull": 0
        },
        {
          "components": [
            {
              "label": "Events.Instructors.Status",
              "labelPosition": "top",
              "widget": "choicesjs",
              "searchEnabled": false,
              "template": "<span class='d-block pr-5 text-truncate'>{{ item.name }}</span>",
              "type": "select",
              "input": true,
              "dataSrc": "url",
              "data": {
                "url": "InstructorStatuses/?$select=id,name,alternateName",
                "headers": []
              },
              "key": "status",
              "valueProperty": "id",
              "selectValues": "value"
            }
          ],
          "width": 3,
          "offset": 0,
          "push": 0,
          "pull": 0
        },
        {
          "components": [
            {
              "label": "Events.Classes.Period",
              "widget": "choicesjs",
              "searchEnabled": false,
              "key": "courseClassPeriod",
              "template": "<span class='d-block pr-5 text-truncate'>{{ item.name }}</span>",
              "type": "select",
              "input": true,
              "dataSrc": "url",
              "data": {
                "url": "Events.AcademicPeriods/?$select=id,name,alternateName",
                "headers": []
              },
              "valueProperty": "id",
              "selectValues": "value",
              "customConditional": "show = form.searchPeriods"
            }
          ],
          "width": 3,
          "offset": 0,
          "push": 0,
          "pull": 0
        }
      ],
      "tableView": false,
      "key": "columns1",
      "type": "columns",
      "input": false,
      "path": "columns1"
    }
  ]
}
