{
    "title": "StudentPeriodRegistrations.Courses",
    "model": "StudentCourseClasses",
    "searchExpression":"indexof(courseClass/title, '${text}') ge 0 or indexof(courseClass/course/displayCode, '${text}') ge 0 ",
    "selectable": true,
    "multipleSelect": true,
    "columns": [
      {
        "name": "id",
        "formatter": "ButtonFormatter",
        "property": "id",
        "className": "text-center",
        "formatOptions": {
          "buttonContent": "<i class=\"fas fa-edit text-indigo\"></i>",
          "buttonClass": "btn btn-default",
          "commands": [
            { "outlets":
            {
              "modal":["item", "${id}", "edit"]
            }
            }
          ],
          "navigationExtras": {
            "replaceUrl": false,
            "skipLocationChange": true
          }
        }
      },
      {
        "name":"registration",
        "property": "registration",
        "hidden" : true,
        "title":"registration"
      },
      {
        "name":"course/displayCode",
        "property": "displayCode",
        "title":"Courses.DisplayCode"
      },
      {
        "name":"courseClass/title",
        "property": "name",
        "title":"Courses.TitleSingular"
      },
      {
        "name":"semester/name",
        "property": "semester",
        "title":"Courses.semester"
      },
      {
        "name":"coefficient",
        "property": "coefficient",
        "title":"Courses.Coefficient"
      },
      {
        "name":"courseClass",
        "property":"courseClass",
        "title":"Events.Classes.courseClass",
        "hidden": true
      },
      {
        "name":"courseType/name",
        "property": "courseTypeName",
        "title":"Courses.CourseType.Label"
      },
      {
        "name":"sectionName",
        "property": "sectionName",
        "title":"Events.Classes.SectionSingular"
      },
      {
        "name":"units",
        "property": "units",
        "title":"Courses.units"
      },
      {
        "name":"ects",
        "property": "ects",
        "title":"Courses.ects"
      }
    ],
    "defaults":{
      "orderBy": "semester asc,courseClass/title asc"
    },
    "paths": [
  
    ],
    "criteria" : [
      {
        "name": "semester",
        "filter": "(semester/name eq '${value}')",
        "type": "text"
      },
      {
        "name": "name",
        "filter": "(indexof(courseClass/title, '${value}') ge 0)",
        "type": "text"
      },
      {
        "name": "displayCode",
        "filter": "(indexof(course/displayCode, '${value}') ge 0)",
        "type": "text"
      },
      {
        "name": "courseSector",
        "filter": "(course/courseSector eq '${value}')",
        "type": "text"
      },
      {
        "name": "courseTypeName",
        "filter": "(course/courseType/course eq '${value}')",
        "type": "text"
      }
    ]
  }
  